com/greater/bank/TaskScheduler.class
com/greater/bank/services/FileDirectoryService.class
com/greater/bank/config/ApplicationConfiguration.class
com/greater/bank/ApplicationStartupEvent.class
com/greater/bank/services/FileDirectoryImpl.class
com/greater/bank/config/Constants.class
com/greater/bank/model/CustomerTransactionBean.class
com/greater/bank/TransactionReportApplication.class
